[
        {
            "id_alat_transportasi": "1",
            "nama_alat_transportasi": "Jalan kaki"
        },
        {
            "id_alat_transportasi": "3",
            "nama_alat_transportasi": "Angkutan umum/bus/pete-pete"
        },
        {
            "id_alat_transportasi": "4",
            "nama_alat_transportasi": "Mobil/bus antar jemput"
        },
        {
            "id_alat_transportasi": "5",
            "nama_alat_transportasi": "Kereta api"
        },
        {
            "id_alat_transportasi": "6",
            "nama_alat_transportasi": "Ojek"
        },
        {
            "id_alat_transportasi": "7",
            "nama_alat_transportasi": "Andong/bendi/sado/dokar/delman/becak"
        },
        {
            "id_alat_transportasi": "8",
            "nama_alat_transportasi": "Perahu penyeberangan/rakit/getek"
        },
        {
            "id_alat_transportasi": "11",
            "nama_alat_transportasi": "Kuda"
        },
        {
            "id_alat_transportasi": "12",
            "nama_alat_transportasi": "Sepeda"
        },
        {
            "id_alat_transportasi": "13",
            "nama_alat_transportasi": "Sepeda motor"
        },
        {
            "id_alat_transportasi": "14",
            "nama_alat_transportasi": "Mobil pribadi"
        },
        {
            "id_alat_transportasi": "99",
            "nama_alat_transportasi": "Lainnya"
        }
    ]
