{
            "nama_mahasiswa": "BAU AJJI",
            "jenis_kelamin": "P",
            "tempat_lahir": "MAKASSAR",
            "tanggal_lahir": "1980-12-31",
            "id_mahasiswa": "79e81325-3ecc-4993-8d51-3863ff919761",
            "id_agama": "1",
            "nama_agama": "Islam",
            "nik": "9119035210790001",
            "nisn": "0         ",
            "npwp": null,
            "id_negara": "ID",
            "kewarganegaraan": "Indonesia",
            "jalan": null,
            "dusun": null,
            "rt": "1",
            "rw": "1",
            "kelurahan": "WARYESI",
            "kode_pos": "98161",
            "id_wilayah": "252703  ",
            "nama_wilayah": "Kec. Supiori Timur            ",
            "id_jenis_tinggal": "3",
            "nama_jenis_tinggal": "Kost",
            "id_alat_transportasi": "13",
            "nama_alat_transportasi": "Sepeda motor",
            "telepon": null,
            "handphone": null,
            "email": null,
            "penerima_kps": "0",
            "nomor_kps": null,
            "nik_ayah": null,
            "nama_ayah": null,
            "tanggal_lahir_ayah": null,
            "id_pendidikan_ayah": null,
            "nama_pendidikan_ayah": null,
            "id_pekerjaan_ayah": null,
            "nama_pekerjaan_ayah": null,
            "id_penghasilan_ayah": null,
            "nama_penghasilan_ayah": null,
            "nik_ibu": null,
            "nama_ibu": "-",
            "tanggal_lahir_ibu": null,
            "id_pendidikan_ibu": null,
            "nama_pendidikan_ibu": null,
            "id_pekerjaan_ibu": null,
            "nama_pekerjaan_ibu": null,
            "id_penghasilan_ibu": null,
            "nama_penghasilan_ibu": null,
            "nama_wali": null,
            "tanggal_lahir_wali": null,
            "id_pendidikan_wali": null,
            "nama_pendidikan_wali": null,
            "id_pekerjaan_wali": null,
            "nama_pekerjaan_wali": null,
            "id_penghasilan_wali": null,
            "nama_penghasilan_wali": null,
            "id_kebutuhan_khusus_mahasiswa": "0",
            "nama_kebutuhan_khusus_mahasiswa": "Tidak ada",
            "id_kebutuhan_khusus_ayah": "0",
            "nama_kebutuhan_khusus_ayah": "Tidak ada",
            "id_kebutuhan_khusus_ibu": "0",
            "nama_kebutuhan_khusus_ibu": "Tidak ada"
        }
    ]
