[
        {
            "id_jenis_substansi": "2    ",
            "nama_jenis_substansi": "Team Teaching"
        },
        {
            "id_jenis_substansi": "3    ",
            "nama_jenis_substansi": "Internship"
        },
        {
            "id_jenis_substansi": "4    ",
            "nama_jenis_substansi": "Departemen (Sistem Blok)"
        }
    ]
