[
        {
            "id_jenis_daftar": "1",
            "nama_jenis_daftar": "Peserta didik baru",
            "untuk_daftar_sekolah": "1"
        },
        {
            "id_jenis_daftar": "2",
            "nama_jenis_daftar": "Pindahan",
            "untuk_daftar_sekolah": "1"
        },
        {
            "id_jenis_daftar": "3",
            "nama_jenis_daftar": "Naik kelas",
            "untuk_daftar_sekolah": "0"
        },
        {
            "id_jenis_daftar": "4",
            "nama_jenis_daftar": "Akselerasi",
            "untuk_daftar_sekolah": "0"
        },
        {
            "id_jenis_daftar": "5",
            "nama_jenis_daftar": "Mengulang",
            "untuk_daftar_sekolah": "0"
        },
        {
            "id_jenis_daftar": "6",
            "nama_jenis_daftar": "Lanjutan semester",
            "untuk_daftar_sekolah": "0"
        },
        {
            "id_jenis_daftar": "8",
            "nama_jenis_daftar": "Pindahan Alih Bentuk",
            "untuk_daftar_sekolah": "0"
        },
        {
            "id_jenis_daftar": "11",
            "nama_jenis_daftar": "Alih Jenjang",
            "untuk_daftar_sekolah": "1"
        },
        {
            "id_jenis_daftar": "12",
            "nama_jenis_daftar": "Lintas Jalur",
            "untuk_daftar_sekolah": "1"
        },
        {
            "id_jenis_daftar": "13",
            "nama_jenis_daftar": "Rekognisi Pembelajaran Lampau (RPL)",
            "untuk_daftar_sekolah": "1"
        }
    ]
