[
        {
            "id_lembaga_angkat": "0",
            "nama_lembaga_angkat": "(tidak diisi)"
        },
        {
            "id_lembaga_angkat": "1",
            "nama_lembaga_angkat": "Kementerian Riset, Teknologi, dan Pendidikan Tinggi"
        },
        {
            "id_lembaga_angkat": "2",
            "nama_lembaga_angkat": "Pemerintah Propinsi"
        },
        {
            "id_lembaga_angkat": "3",
            "nama_lembaga_angkat": "Pemerintah Kab/Kota"
        },
        {
            "id_lembaga_angkat": "4",
            "nama_lembaga_angkat": "Ketua Yayasan"
        },
        {
            "id_lembaga_angkat": "5",
            "nama_lembaga_angkat": "Kepala Sekolah"
        },
        {
            "id_lembaga_angkat": "6",
            "nama_lembaga_angkat": "Komite Sekolah"
        },
        {
            "id_lembaga_angkat": "20",
            "nama_lembaga_angkat": "Kementerian Agama"
        },
        {
            "id_lembaga_angkat": "30",
            "nama_lembaga_angkat": "Badan Meteorologi Klimatologi dan Geofisika"
        },
        {
            "id_lembaga_angkat": "31",
            "nama_lembaga_angkat": "Kementerian Agraria dan Tata Ruang/Badan Pertanahan Nasional"
        },
        {
            "id_lembaga_angkat": "32",
            "nama_lembaga_angkat": "Badan Tenaga Nuklir Nasional"
        },
        {
            "id_lembaga_angkat": "33",
            "nama_lembaga_angkat": "Badan Pusat Statistik"
        },
        {
            "id_lembaga_angkat": "34",
            "nama_lembaga_angkat": "Kementerian Dalam Negeri"
        },
        {
            "id_lembaga_angkat": "35",
            "nama_lembaga_angkat": "Kementerian Energi dan Sumber Daya Mineral"
        },
        {
            "id_lembaga_angkat": "36",
            "nama_lembaga_angkat": "Kementerian Hukum dan HAM"
        },
        {
            "id_lembaga_angkat": "37",
            "nama_lembaga_angkat": "Kementerian Informasi dan Komunikasi"
        },
        {
            "id_lembaga_angkat": "38",
            "nama_lembaga_angkat": "Kementerian Pariwisata dan Ekonomi Kreatif"
        },
        {
            "id_lembaga_angkat": "39",
            "nama_lembaga_angkat": "Kementerian Kelautan dan Perikanan"
        },
        {
            "id_lembaga_angkat": "40",
            "nama_lembaga_angkat": "Kementerian Kesehatan"
        },
        {
            "id_lembaga_angkat": "41",
            "nama_lembaga_angkat": "Kementerian Keuangan"
        },
        {
            "id_lembaga_angkat": "42",
            "nama_lembaga_angkat": "Kementerian Perhubungan"
        },
        {
            "id_lembaga_angkat": "43",
            "nama_lembaga_angkat": "Kementerian Perindustrian"
        },
        {
            "id_lembaga_angkat": "44",
            "nama_lembaga_angkat": "Kementerian Pertanian"
        },
        {
            "id_lembaga_angkat": "45",
            "nama_lembaga_angkat": "Kementerian Sosial"
        },
        {
            "id_lembaga_angkat": "46",
            "nama_lembaga_angkat": "Lembaga Sandi Negara RI"
        },
        {
            "id_lembaga_angkat": "47",
            "nama_lembaga_angkat": "Kementerian Pertahanan"
        },
        {
            "id_lembaga_angkat": "48",
            "nama_lembaga_angkat": "Kepolisian"
        },
        {
            "id_lembaga_angkat": "49",
            "nama_lembaga_angkat": "Lembaga Administrasi Negara"
        },
        {
            "id_lembaga_angkat": "50",
            "nama_lembaga_angkat": "Kementerian Perdagangan"
        },
        {
            "id_lembaga_angkat": "51",
            "nama_lembaga_angkat": "Badan Intelijen Negara"
        },
        {
            "id_lembaga_angkat": "52",
            "nama_lembaga_angkat": "Kementerian Pekerjaan Umum dan Perumahan Rakyat"
        },
        {
            "id_lembaga_angkat": "60",
            "nama_lembaga_angkat": "Perguruan Tinggi"
        }
    ]
