[
        {
            "id_negara": "AD",
            "nama_negara": "Andorra"
        },
        {
            "id_negara": "AE",
            "nama_negara": "United Arab Emirates"
        },
        {
            "id_negara": "AF",
            "nama_negara": "Afghanistan"
        },
        {
            "id_negara": "AG",
            "nama_negara": "Antigua And Barbuda"
        },
        {
            "id_negara": "AI",
            "nama_negara": "Anguilla"
        },
        {
            "id_negara": "AL",
            "nama_negara": "Albania"
        },
        {
            "id_negara": "AM",
            "nama_negara": "Armenia"
        },
        {
            "id_negara": "AN",
            "nama_negara": "Netherlands Antilles"
        },
        {
            "id_negara": "AO",
            "nama_negara": "Angola"
        },
        {
            "id_negara": "AQ",
            "nama_negara": "Antarctica"
        },
        {
            "id_negara": "AR",
            "nama_negara": "Argentina"
        },
        {
            "id_negara": "AS",
            "nama_negara": "American Samoa"
        },
        {
            "id_negara": "AT",
            "nama_negara": "Austria"
        },
        {
            "id_negara": "AU",
            "nama_negara": "Australia"
        },
        {
            "id_negara": "AW",
            "nama_negara": "Aruba"
        },
        {
            "id_negara": "AX",
            "nama_negara": "Aland Islands"
        },
        {
            "id_negara": "AZ",
            "nama_negara": "Azerbaijan"
        },
        {
            "id_negara": "BA",
            "nama_negara": "Bosnia And Herzegovina"
        },
        {
            "id_negara": "BB",
            "nama_negara": "Barbados"
        },
        {
            "id_negara": "BD",
            "nama_negara": "Bangladesh"
        },
        {
            "id_negara": "BE",
            "nama_negara": "Belgium"
        },
        {
            "id_negara": "BF",
            "nama_negara": "Burkina Faso"
        },
        {
            "id_negara": "BG",
            "nama_negara": "Bulgaria"
        },
        {
            "id_negara": "BH",
            "nama_negara": "Bahrain"
        },
        {
            "id_negara": "BI",
            "nama_negara": "Burundi"
        },
        {
            "id_negara": "BJ",
            "nama_negara": "Benin"
        },
        {
            "id_negara": "BL",
            "nama_negara": "Saint Bartelemey"
        },
        {
            "id_negara": "BM",
            "nama_negara": "Bermuda"
        },
        {
            "id_negara": "BN",
            "nama_negara": "Brunei Darussalam"
        },
        {
            "id_negara": "BO",
            "nama_negara": "Bolivia"
        },
        {
            "id_negara": "BQ",
            "nama_negara": "Bonaire, Saint Eustatius and Saba"
        },
        {
            "id_negara": "BR",
            "nama_negara": "Brazil"
        },
        {
            "id_negara": "BS",
            "nama_negara": "Bahamas"
        },
        {
            "id_negara": "BT",
            "nama_negara": "Bhutan"
        },
        {
            "id_negara": "BV",
            "nama_negara": "Bouvet Island"
        },
        {
            "id_negara": "BW",
            "nama_negara": "Botswana"
        },
        {
            "id_negara": "BY",
            "nama_negara": "Belarus"
        },
        {
            "id_negara": "BZ",
            "nama_negara": "Belize"
        },
        {
            "id_negara": "CA",
            "nama_negara": "Canada"
        },
        {
            "id_negara": "CC",
            "nama_negara": "Cocos (Keeling) Islands"
        },
        {
            "id_negara": "CD",
            "nama_negara": "Congo, The Democratic Republic Of The"
        },
        {
            "id_negara": "CF",
            "nama_negara": "Central African Republic"
        },
        {
            "id_negara": "CG",
            "nama_negara": "Congo"
        },
        {
            "id_negara": "CH",
            "nama_negara": "Switzerland"
        },
        {
            "id_negara": "CI",
            "nama_negara": "Cote D'Ivoire"
        },
        {
            "id_negara": "CK",
            "nama_negara": "Cook Islands"
        },
        {
            "id_negara": "CL",
            "nama_negara": "Chile"
        },
        {
            "id_negara": "CM",
            "nama_negara": "Cameroon"
        },
        {
            "id_negara": "CN",
            "nama_negara": "China"
        },
        {
            "id_negara": "CO",
            "nama_negara": "Colombia"
        },
        {
            "id_negara": "CR",
            "nama_negara": "Costa Rica"
        },
        {
            "id_negara": "CS",
            "nama_negara": "Serbia And Montenegro"
        },
        {
            "id_negara": "CU",
            "nama_negara": "Cuba"
        },
        {
            "id_negara": "CV",
            "nama_negara": "Cape Verde"
        },
        {
            "id_negara": "CW",
            "nama_negara": "Curacao"
        },
        {
            "id_negara": "CX",
            "nama_negara": "Christmas Island"
        },
        {
            "id_negara": "CY",
            "nama_negara": "Cyprus"
        },
        {
            "id_negara": "CZ",
            "nama_negara": "Czech Republic"
        },
        {
            "id_negara": "DE",
            "nama_negara": "Germany"
        },
        {
            "id_negara": "DJ",
            "nama_negara": "Djibouti"
        },
        {
            "id_negara": "DK",
            "nama_negara": "Denmark"
        },
        {
            "id_negara": "DM",
            "nama_negara": "Dominica"
        },
        {
            "id_negara": "DO",
            "nama_negara": "Dominican Republic"
        },
        {
            "id_negara": "DZ",
            "nama_negara": "Algeria"
        },
        {
            "id_negara": "EC",
            "nama_negara": "Ecuador"
        },
        {
            "id_negara": "EE",
            "nama_negara": "Estonia"
        },
        {
            "id_negara": "EG",
            "nama_negara": "Egypt"
        },
        {
            "id_negara": "EH",
            "nama_negara": "Western Sahara"
        },
        {
            "id_negara": "ER",
            "nama_negara": "Eritrea"
        },
        {
            "id_negara": "ES",
            "nama_negara": "Spain"
        },
        {
            "id_negara": "ET",
            "nama_negara": "Ethiopia"
        },
        {
            "id_negara": "FI",
            "nama_negara": "Finland"
        },
        {
            "id_negara": "FJ",
            "nama_negara": "Fiji"
        },
        {
            "id_negara": "FK",
            "nama_negara": "Falkland Islands (Malvinas)"
        },
        {
            "id_negara": "FM",
            "nama_negara": "Micronesia, Federated States Of"
        },
        {
            "id_negara": "FO",
            "nama_negara": "Faroe Islands"
        },
        {
            "id_negara": "FR",
            "nama_negara": "France"
        },
        {
            "id_negara": "GA",
            "nama_negara": "Gabon"
        },
        {
            "id_negara": "GB",
            "nama_negara": "United Kingdom"
        },
        {
            "id_negara": "GD",
            "nama_negara": "Grenada"
        },
        {
            "id_negara": "GE",
            "nama_negara": "Georgia"
        },
        {
            "id_negara": "GF",
            "nama_negara": "French Guiana"
        },
        {
            "id_negara": "GG",
            "nama_negara": "Guernsey"
        },
        {
            "id_negara": "GH",
            "nama_negara": "Ghana"
        },
        {
            "id_negara": "GI",
            "nama_negara": "Gibraltar"
        },
        {
            "id_negara": "GL",
            "nama_negara": "Greenland"
        },
        {
            "id_negara": "GM",
            "nama_negara": "Gambia"
        },
        {
            "id_negara": "GN",
            "nama_negara": "Guinea"
        },
        {
            "id_negara": "GP",
            "nama_negara": "Guadeloupe"
        },
        {
            "id_negara": "GQ",
            "nama_negara": "Equatorial Guinea"
        },
        {
            "id_negara": "GR",
            "nama_negara": "Greece"
        },
        {
            "id_negara": "GS",
            "nama_negara": "South Georgia And The South Sandwich Islands"
        },
        {
            "id_negara": "GT",
            "nama_negara": "Guatemala"
        },
        {
            "id_negara": "GU",
            "nama_negara": "Guam"
        },
        {
            "id_negara": "GW",
            "nama_negara": "Guinea-Bissau"
        },
        {
            "id_negara": "GY",
            "nama_negara": "Guyana"
        },
        {
            "id_negara": "HK",
            "nama_negara": "Hong Kong"
        },
        {
            "id_negara": "HM",
            "nama_negara": "Heard Island And Mcdonald Islands"
        },
        {
            "id_negara": "HN",
            "nama_negara": "Honduras"
        },
        {
            "id_negara": "HR",
            "nama_negara": "Croatia"
        },
        {
            "id_negara": "HT",
            "nama_negara": "Haiti"
        },
        {
            "id_negara": "HU",
            "nama_negara": "Hungary"
        },
        {
            "id_negara": "ID",
            "nama_negara": "Indonesia"
        },
        {
            "id_negara": "IE",
            "nama_negara": "Ireland"
        },
        {
            "id_negara": "IL",
            "nama_negara": "Israel"
        },
        {
            "id_negara": "IM",
            "nama_negara": "Isle Of Man"
        },
        {
            "id_negara": "IN",
            "nama_negara": "India"
        },
        {
            "id_negara": "IO",
            "nama_negara": "British Indian Ocean Territory"
        },
        {
            "id_negara": "IQ",
            "nama_negara": "Iraq"
        },
        {
            "id_negara": "IR",
            "nama_negara": "Iran, Islamic Republic Of"
        },
        {
            "id_negara": "IS",
            "nama_negara": "Iceland"
        },
        {
            "id_negara": "IT",
            "nama_negara": "Italy"
        },
        {
            "id_negara": "JE",
            "nama_negara": "Jersey"
        },
        {
            "id_negara": "JM",
            "nama_negara": "Jamaica"
        },
        {
            "id_negara": "JO",
            "nama_negara": "Jordan"
        },
        {
            "id_negara": "JP",
            "nama_negara": "Japan"
        },
        {
            "id_negara": "KE",
            "nama_negara": "Kenya"
        },
        {
            "id_negara": "KG",
            "nama_negara": "Kyrgyzstan"
        },
        {
            "id_negara": "KH",
            "nama_negara": "Cambodia"
        },
        {
            "id_negara": "KI",
            "nama_negara": "Kiribati"
        },
        {
            "id_negara": "KM",
            "nama_negara": "Comoros"
        },
        {
            "id_negara": "KN",
            "nama_negara": "Saint Kitts And Nevis"
        },
        {
            "id_negara": "KP",
            "nama_negara": "Korea, Democratic People'S Republic Of"
        },
        {
            "id_negara": "KR",
            "nama_negara": "Korea, Republic Of"
        },
        {
            "id_negara": "KW",
            "nama_negara": "Kuwait"
        },
        {
            "id_negara": "KY",
            "nama_negara": "Cayman Islands"
        },
        {
            "id_negara": "KZ",
            "nama_negara": "Kazakhstan"
        },
        {
            "id_negara": "LA",
            "nama_negara": "Lao People'S Democratic Republic"
        },
        {
            "id_negara": "LB",
            "nama_negara": "Lebanon"
        },
        {
            "id_negara": "LC",
            "nama_negara": "Saint Lucia"
        },
        {
            "id_negara": "LI",
            "nama_negara": "Liechtenstein"
        },
        {
            "id_negara": "LK",
            "nama_negara": "Sri Lanka"
        },
        {
            "id_negara": "LR",
            "nama_negara": "Liberia"
        },
        {
            "id_negara": "LS",
            "nama_negara": "Lesotho"
        },
        {
            "id_negara": "LT",
            "nama_negara": "Lithuania"
        },
        {
            "id_negara": "LU",
            "nama_negara": "Luxembourg"
        },
        {
            "id_negara": "LV",
            "nama_negara": "Latvia"
        },
        {
            "id_negara": "LY",
            "nama_negara": "Libyan Arab Jamahiriya"
        },
        {
            "id_negara": "MA",
            "nama_negara": "Morocco"
        },
        {
            "id_negara": "MC",
            "nama_negara": "Monaco"
        },
        {
            "id_negara": "MD",
            "nama_negara": "Moldova, Republic Of"
        },
        {
            "id_negara": "ME",
            "nama_negara": "Montenegro"
        },
        {
            "id_negara": "MF",
            "nama_negara": "Saint Martin"
        },
        {
            "id_negara": "MG",
            "nama_negara": "Madagascar"
        },
        {
            "id_negara": "MH",
            "nama_negara": "Marshall Islands"
        },
        {
            "id_negara": "MK",
            "nama_negara": "Macedonia, The Former Yugoslav Republic Of"
        },
        {
            "id_negara": "ML",
            "nama_negara": "Mali"
        },
        {
            "id_negara": "MM",
            "nama_negara": "Myanmar"
        },
        {
            "id_negara": "MN",
            "nama_negara": "Mongolia"
        },
        {
            "id_negara": "MO",
            "nama_negara": "Macao"
        },
        {
            "id_negara": "MP",
            "nama_negara": "Northern Mariana Islands"
        },
        {
            "id_negara": "MQ",
            "nama_negara": "Martinique"
        },
        {
            "id_negara": "MR",
            "nama_negara": "Mauritania"
        },
        {
            "id_negara": "MS",
            "nama_negara": "Montserrat"
        },
        {
            "id_negara": "MT",
            "nama_negara": "Malta"
        },
        {
            "id_negara": "MU",
            "nama_negara": "Mauritius"
        },
        {
            "id_negara": "MV",
            "nama_negara": "Maldives"
        },
        {
            "id_negara": "MW",
            "nama_negara": "Malawi"
        },
        {
            "id_negara": "MX",
            "nama_negara": "Mexico"
        },
        {
            "id_negara": "MY",
            "nama_negara": "Malaysia"
        },
        {
            "id_negara": "MZ",
            "nama_negara": "Mozambique"
        },
        {
            "id_negara": "NA",
            "nama_negara": "Namibia"
        },
        {
            "id_negara": "NC",
            "nama_negara": "New Caledonia"
        },
        {
            "id_negara": "NE",
            "nama_negara": "Niger"
        },
        {
            "id_negara": "NF",
            "nama_negara": "Norfolk Island"
        },
        {
            "id_negara": "NG",
            "nama_negara": "Nigeria"
        },
        {
            "id_negara": "NI",
            "nama_negara": "Nicaragua"
        },
        {
            "id_negara": "NL",
            "nama_negara": "Netherlands"
        },
        {
            "id_negara": "NO",
            "nama_negara": "Norway"
        },
        {
            "id_negara": "NP",
            "nama_negara": "Nepal"
        },
        {
            "id_negara": "NR",
            "nama_negara": "Nauru"
        },
        {
            "id_negara": "NU",
            "nama_negara": "Niue"
        },
        {
            "id_negara": "NZ",
            "nama_negara": "New Zealand"
        },
        {
            "id_negara": "OM",
            "nama_negara": "Oman"
        },
        {
            "id_negara": "PA",
            "nama_negara": "Panama"
        },
        {
            "id_negara": "PE",
            "nama_negara": "Peru"
        },
        {
            "id_negara": "PF",
            "nama_negara": "French Polynesia"
        },
        {
            "id_negara": "PG",
            "nama_negara": "Papua New Guinea"
        },
        {
            "id_negara": "PH",
            "nama_negara": "Philippines"
        },
        {
            "id_negara": "PK",
            "nama_negara": "Pakistan"
        },
        {
            "id_negara": "PL",
            "nama_negara": "Poland"
        },
        {
            "id_negara": "PM",
            "nama_negara": "Saint Pierre And Miquelon"
        },
        {
            "id_negara": "PN",
            "nama_negara": "Pitcairn"
        },
        {
            "id_negara": "PR",
            "nama_negara": "Puerto Rico"
        },
        {
            "id_negara": "PS",
            "nama_negara": "Palestinian Territory, Occupied"
        },
        {
            "id_negara": "PT",
            "nama_negara": "Portugal"
        },
        {
            "id_negara": "PW",
            "nama_negara": "Palau"
        },
        {
            "id_negara": "PY",
            "nama_negara": "Paraguay"
        },
        {
            "id_negara": "QA",
            "nama_negara": "Qatar"
        },
        {
            "id_negara": "RE",
            "nama_negara": "Reunion"
        },
        {
            "id_negara": "RO",
            "nama_negara": "Romania"
        },
        {
            "id_negara": "RS",
            "nama_negara": "Serbia"
        },
        {
            "id_negara": "RU",
            "nama_negara": "Russian Federation"
        },
        {
            "id_negara": "RW",
            "nama_negara": "Rwanda"
        },
        {
            "id_negara": "SA",
            "nama_negara": "Saudi Arabia"
        },
        {
            "id_negara": "SB",
            "nama_negara": "Solomon Islands"
        },
        {
            "id_negara": "SC",
            "nama_negara": "Seychelles"
        },
        {
            "id_negara": "SD",
            "nama_negara": "Sudan"
        },
        {
            "id_negara": "SE",
            "nama_negara": "Sweden"
        },
        {
            "id_negara": "SG",
            "nama_negara": "Singapore"
        },
        {
            "id_negara": "SH",
            "nama_negara": "Saint Helena"
        },
        {
            "id_negara": "SI",
            "nama_negara": "Slovenia"
        },
        {
            "id_negara": "SJ",
            "nama_negara": "Svalbard And Jan Mayen"
        },
        {
            "id_negara": "SK",
            "nama_negara": "Slovakia"
        },
        {
            "id_negara": "SL",
            "nama_negara": "Sierra Leone"
        },
        {
            "id_negara": "SM",
            "nama_negara": "San Marino"
        },
        {
            "id_negara": "SN",
            "nama_negara": "Senegal"
        },
        {
            "id_negara": "SO",
            "nama_negara": "Somalia"
        },
        {
            "id_negara": "SR",
            "nama_negara": "Suriname"
        },
        {
            "id_negara": "SS",
            "nama_negara": "South Sudan"
        },
        {
            "id_negara": "ST",
            "nama_negara": "Sao Tome And Principe"
        },
        {
            "id_negara": "SV",
            "nama_negara": "El Salvador"
        },
        {
            "id_negara": "SX",
            "nama_negara": "Sint Maarten"
        },
        {
            "id_negara": "SY",
            "nama_negara": "Syrian Arab Republic"
        },
        {
            "id_negara": "SZ",
            "nama_negara": "Swaziland"
        },
        {
            "id_negara": "TC",
            "nama_negara": "Turks And Caicos Islands"
        },
        {
            "id_negara": "TD",
            "nama_negara": "Chad"
        },
        {
            "id_negara": "TF",
            "nama_negara": "French Southern Territories"
        },
        {
            "id_negara": "TG",
            "nama_negara": "Togo"
        },
        {
            "id_negara": "TH",
            "nama_negara": "Thailand"
        },
        {
            "id_negara": "TJ",
            "nama_negara": "Tajikistan"
        },
        {
            "id_negara": "TK",
            "nama_negara": "Tokelau"
        },
        {
            "id_negara": "TL",
            "nama_negara": "Timor-Leste"
        },
        {
            "id_negara": "TM",
            "nama_negara": "Turkmenistan"
        },
        {
            "id_negara": "TN",
            "nama_negara": "Tunisia"
        },
        {
            "id_negara": "TO",
            "nama_negara": "Tonga"
        },
        {
            "id_negara": "TR",
            "nama_negara": "Turkey"
        },
        {
            "id_negara": "TT",
            "nama_negara": "Trinidad And Tobago"
        },
        {
            "id_negara": "TV",
            "nama_negara": "Tuvalu"
        },
        {
            "id_negara": "TW",
            "nama_negara": "Taiwan, Province Of China"
        },
        {
            "id_negara": "TZ",
            "nama_negara": "Tanzania, United Republic Of"
        },
        {
            "id_negara": "UA",
            "nama_negara": "Ukraine"
        },
        {
            "id_negara": "UG",
            "nama_negara": "Uganda"
        },
        {
            "id_negara": "UM",
            "nama_negara": "United States Minor Outlying Islands"
        },
        {
            "id_negara": "US",
            "nama_negara": "United States"
        },
        {
            "id_negara": "UY",
            "nama_negara": "Uruguay"
        },
        {
            "id_negara": "UZ",
            "nama_negara": "Uzbekistan"
        },
        {
            "id_negara": "VA",
            "nama_negara": "Holy See (Vatican City State)"
        },
        {
            "id_negara": "VC",
            "nama_negara": "Saint Vincent And The Grenadines"
        },
        {
            "id_negara": "VE",
            "nama_negara": "Venezuela"
        },
        {
            "id_negara": "VG",
            "nama_negara": "Virgin Islands, British"
        },
        {
            "id_negara": "VI",
            "nama_negara": "Virgin Islands, U.S."
        },
        {
            "id_negara": "VN",
            "nama_negara": "Viet Nam"
        },
        {
            "id_negara": "VU",
            "nama_negara": "Vanuatu"
        },
        {
            "id_negara": "WF",
            "nama_negara": "Wallis And Futuna"
        },
        {
            "id_negara": "WS",
            "nama_negara": "Samoa"
        },
        {
            "id_negara": "YE",
            "nama_negara": "Yemen"
        },
        {
            "id_negara": "YT",
            "nama_negara": "Mayotte"
        },
        {
            "id_negara": "ZA",
            "nama_negara": "South Africa"
        },
        {
            "id_negara": "ZM",
            "nama_negara": "Zambia"
        },
        {
            "id_negara": "ZW",
            "nama_negara": "Zimbabwe"
        }
    ]
