[
        {
            "id_pangkat_golongan": "1",
            "kode_golongan": "I/a",
            "nama_pangkat": "Juru Muda"
        },
        {
            "id_pangkat_golongan": "2",
            "kode_golongan": "I/b",
            "nama_pangkat": "Juru Muda Tk. I"
        },
        {
            "id_pangkat_golongan": "3",
            "kode_golongan": "I/c",
            "nama_pangkat": "Juru"
        },
        {
            "id_pangkat_golongan": "4",
            "kode_golongan": "I/d",
            "nama_pangkat": "Juru Tk. I"
        },
        {
            "id_pangkat_golongan": "5",
            "kode_golongan": "II/a",
            "nama_pangkat": "Pengatur Muda"
        },
        {
            "id_pangkat_golongan": "6",
            "kode_golongan": "II/b",
            "nama_pangkat": "Pengatur Muda Tk. I"
        },
        {
            "id_pangkat_golongan": "7",
            "kode_golongan": "II/c",
            "nama_pangkat": "Pengatur"
        },
        {
            "id_pangkat_golongan": "8",
            "kode_golongan": "II/d",
            "nama_pangkat": "Pengatur Tk. I"
        },
        {
            "id_pangkat_golongan": "9",
            "kode_golongan": "III/a",
            "nama_pangkat": "Penata Muda"
        },
        {
            "id_pangkat_golongan": "10",
            "kode_golongan": "III/b",
            "nama_pangkat": "Penata Muda Tk. I"
        },
        {
            "id_pangkat_golongan": "11",
            "kode_golongan": "III/c",
            "nama_pangkat": "Penata"
        },
        {
            "id_pangkat_golongan": "12",
            "kode_golongan": "III/d",
            "nama_pangkat": "Penata Tk. I"
        },
        {
            "id_pangkat_golongan": "13",
            "kode_golongan": "IV/a",
            "nama_pangkat": "Pembina"
        },
        {
            "id_pangkat_golongan": "14",
            "kode_golongan": "IV/b",
            "nama_pangkat": "Pembina Tk. I"
        },
        {
            "id_pangkat_golongan": "15",
            "kode_golongan": "IV/c",
            "nama_pangkat": "Pembina Utama Muda"
        },
        {
            "id_pangkat_golongan": "16",
            "kode_golongan": "IV/d",
            "nama_pangkat": "Pembina Utama Madya"
        },
        {
            "id_pangkat_golongan": "17",
            "kode_golongan": "IV/e",
            "nama_pangkat": "Pembina Utama"
        },
        {
            "id_pangkat_golongan": "99",
            "kode_golongan": "-",
            "nama_pangkat": "-"
        }
    ]
