{
    "id_prodi": "f32aba72-a0fa-4e5d-87c6-04836788b9f6",
    "kode_program_studi": "70201",
    "nama_program_studi": "Ilmu Komunikasi",
    "status": "A",
    "id_jenjang_pendidikan": "30",
    "nama_jenjang_pendidikan": "S1"
},
{
    "id_prodi": "300597e1-efe1-4ca2-909a-6c905eba6858",
    "kode_program_studi": "55201",
    "nama_program_studi": "Teknik Informatika",
    "status": "A",
    "id_jenjang_pendidikan": "30",
    "nama_jenjang_pendidikan": "S1"
},
{
    "id_prodi": "3494bd24-b38a-43c7-a8e3-e2bd109ad973",
    "kode_program_studi": "13201",
    "nama_program_studi": "Kesehatan Masyarakat",
    "status": "A",
    "id_jenjang_pendidikan": "30",
    "nama_jenjang_pendidikan": "S1"
},
{
    "id_prodi": "4e8aff8c-bc14-42cb-b54c-5cb8ae12cabe",
    "kode_program_studi": "63201",
    "nama_program_studi": "Ilmu Administrasi Negara",
    "status": "A",
    "id_jenjang_pendidikan": "30",
    "nama_jenjang_pendidikan": "S1"
},
{
    "id_prodi": "849ec29e-5970-449f-bb84-207f94c46cd5",
    "kode_program_studi": "31201",
    "nama_program_studi": "Teknik Pertambangan",
    "status": "A",
    "id_jenjang_pendidikan": "30",
    "nama_jenjang_pendidikan": "S1"
},
{
    "id_prodi": "c57cdd84-45e8-4a9f-804d-83062924d849",
    "kode_program_studi": "62201",
    "nama_program_studi": "Akuntansi",
    "status": "A",
    "id_jenjang_pendidikan": "30",
    "nama_jenjang_pendidikan": "S1"
},
{
    "id_prodi": "46419cfb-d9ff-434d-888c-14512463afeb",
    "kode_program_studi": "84205",
    "nama_program_studi": "Pendidikan Biologi",
    "status": "A",
    "id_jenjang_pendidikan": "30",
    "nama_jenjang_pendidikan": "S1"
},
{
    "id_prodi": "95a1b6b2-6f43-420f-b681-b50036d4295c",
    "kode_program_studi": "84202",
    "nama_program_studi": "Pendidikan Matematika",
    "status": "A",
    "id_jenjang_pendidikan": "30",
    "nama_jenjang_pendidikan": "S1"
},
{
    "id_prodi": "b8edf332-efa0-4a69-a683-0b8d3eccc596",
    "kode_program_studi": "61201",
    "nama_program_studi": "Manajemen",
    "status": "A",
    "id_jenjang_pendidikan": "30",
    "nama_jenjang_pendidikan": "S1"
},
{
    "id_prodi": "d23705f1-adfc-41cc-af81-8961cec48d6e",
    "kode_program_studi": "87201",
    "nama_program_studi": "Pendidikan Sejarah",
    "status": "A",
    "id_jenjang_pendidikan": "30",
    "nama_jenjang_pendidikan": "S1"
},
{
    "id_prodi": "13576119-7a9e-4cb3-b580-6c0604c5630a",
    "kode_program_studi": "21201",
    "nama_program_studi": "Teknik Mesin",
    "status": "A",
    "id_jenjang_pendidikan": "30",
    "nama_jenjang_pendidikan": "S1"
},
{
    "id_prodi": "0cbb8d72-ae52-450a-9778-195476154c39",
    "kode_program_studi": "86203",
    "nama_program_studi": "Teknologi Pendidikan",
    "status": "A",
    "id_jenjang_pendidikan": "30",
    "nama_jenjang_pendidikan": "S1"
},
{
    "id_prodi": "b9e2244f-1bfd-4cb3-beda-0f16793f5d91",
    "kode_program_studi": "87205",
    "nama_program_studi": "Pendidikan Pancasila Dan Kewarganegaraan",
    "status": "A",
    "id_jenjang_pendidikan": "30",
    "nama_jenjang_pendidikan": "S1"
}
