[
        {
            "id_semester": "19801",
            "id_tahun_ajaran": "1980",
            "nama_semester": "1980/1981 Ganjil",
            "semester": "1",
            "a_periode_aktif": "0",
            "tanggal_mulai": "1980-07-01",
            "tanggal_selesai": "1980-12-31"
        },
        {
            "id_semester": "19802",
            "id_tahun_ajaran": "1980",
            "nama_semester": "1980/1981 Genap",
            "semester": "1",
            "a_periode_aktif": "0",
            "tanggal_mulai": "1981-01-01",
            "tanggal_selesai": "1981-07-31"
        },
        {
            "id_semester": "19803",
            "id_tahun_ajaran": "1980",
            "nama_semester": "1980/1981 Pendek",
            "semester": "3",
            "a_periode_aktif": "0",
            "tanggal_mulai": "1981-07-01",
            "tanggal_selesai": "1981-07-31"
        },
        {
            "id_semester": "19811",
            "id_tahun_ajaran": "1981",
            "nama_semester": "1981/1982 Ganjil",
            "semester": "1",
            "a_periode_aktif": "0",
            "tanggal_mulai": "1981-07-01",
            "tanggal_selesai": "1981-12-31"
        },
        {
            "id_semester": "19812",
            "id_tahun_ajaran": "1981",
            "nama_semester": "1981/1982 Genap",
            "semester": "1",
            "a_periode_aktif": "0",
            "tanggal_mulai": "1982-01-01",
            "tanggal_selesai": "1982-07-31"
        },
        {
            "id_semester": "19813",
            "id_tahun_ajaran": "1981",
            "nama_semester": "1981/1982 Pendek",
            "semester": "3",
            "a_periode_aktif": "0",
            "tanggal_mulai": "1982-07-01",
            "tanggal_selesai": "1982-07-31"
        },
        {
            "id_semester": "19821",
            "id_tahun_ajaran": "1982",
            "nama_semester": "1982/1983 Ganjil",
            "semester": "1",
            "a_periode_aktif": "0",
            "tanggal_mulai": "1982-07-01",
            "tanggal_selesai": "1982-12-31"
        },
        {
            "id_semester": "19822",
            "id_tahun_ajaran": "1982",
            "nama_semester": "1982/1983 Genap",
            "semester": "1",
            "a_periode_aktif": "0",
            "tanggal_mulai": "1983-01-01",
            "tanggal_selesai": "1983-07-31"
        },
        {
            "id_semester": "19823",
            "id_tahun_ajaran": "1982",
            "nama_semester": "1982/1983 Pendek",
            "semester": "3",
            "a_periode_aktif": "0",
            "tanggal_mulai": "1983-07-01",
            "tanggal_selesai": "1983-07-31"
        },
        {
            "id_semester": "19831",
            "id_tahun_ajaran": "1983",
            "nama_semester": "1983/1984 Ganjil",
            "semester": "1",
            "a_periode_aktif": "0",
            "tanggal_mulai": "1983-07-01",
            "tanggal_selesai": "1983-12-31"
        },
        {
            "id_semester": "19832",
            "id_tahun_ajaran": "1983",
            "nama_semester": "1983/1984 Genap",
            "semester": "1",
            "a_periode_aktif": "0",
            "tanggal_mulai": "1984-01-01",
            "tanggal_selesai": "1984-07-31"
        },
        {
            "id_semester": "19833",
            "id_tahun_ajaran": "1983",
            "nama_semester": "1983/1984 Pendek",
            "semester": "3",
            "a_periode_aktif": "0",
            "tanggal_mulai": "1984-07-01",
            "tanggal_selesai": "1984-07-31"
        },
        {
            "id_semester": "19841",
            "id_tahun_ajaran": "1984",
            "nama_semester": "1984/1985 Ganjil",
            "semester": "1",
            "a_periode_aktif": "0",
            "tanggal_mulai": "1984-07-01",
            "tanggal_selesai": "1984-12-31"
        },
        {
            "id_semester": "19842",
            "id_tahun_ajaran": "1984",
            "nama_semester": "1984/1985 Genap",
            "semester": "1",
            "a_periode_aktif": "0",
            "tanggal_mulai": "1985-01-01",
            "tanggal_selesai": "1985-07-31"
        },
        {
            "id_semester": "19843",
            "id_tahun_ajaran": "1984",
            "nama_semester": "1984/1985 Pendek",
            "semester": "3",
            "a_periode_aktif": "0",
            "tanggal_mulai": "1985-07-01",
            "tanggal_selesai": "1985-07-31"
        },
        {
            "id_semester": "19851",
            "id_tahun_ajaran": "1985",
            "nama_semester": "1985/1986 Ganjil",
            "semester": "1",
            "a_periode_aktif": "0",
            "tanggal_mulai": "1985-07-01",
            "tanggal_selesai": "1985-12-31"
        },
        {
            "id_semester": "19852",
            "id_tahun_ajaran": "1985",
            "nama_semester": "1985/1986 Genap",
            "semester": "1",
            "a_periode_aktif": "0",
            "tanggal_mulai": "1986-01-01",
            "tanggal_selesai": "1986-07-31"
        },
        {
            "id_semester": "19853",
            "id_tahun_ajaran": "1985",
            "nama_semester": "1985/1986 Pendek",
            "semester": "3",
            "a_periode_aktif": "0",
            "tanggal_mulai": "1986-07-01",
            "tanggal_selesai": "1986-07-31"
        },
        {
            "id_semester": "19861",
            "id_tahun_ajaran": "1986",
            "nama_semester": "1986/1987 Ganjil",
            "semester": "1",
            "a_periode_aktif": "0",
            "tanggal_mulai": "1986-07-01",
            "tanggal_selesai": "1986-12-31"
        },
        {
            "id_semester": "19862",
            "id_tahun_ajaran": "1986",
            "nama_semester": "1986/1987 Genap",
            "semester": "1",
            "a_periode_aktif": "0",
            "tanggal_mulai": "1987-01-01",
            "tanggal_selesai": "1987-07-31"
        },
        {
            "id_semester": "19863",
            "id_tahun_ajaran": "1986",
            "nama_semester": "1986/1987 Pendek",
            "semester": "3",
            "a_periode_aktif": "0",
            "tanggal_mulai": "1987-07-01",
            "tanggal_selesai": "1987-07-31"
        },
        {
            "id_semester": "19871",
            "id_tahun_ajaran": "1987",
            "nama_semester": "1987/1988 Ganjil",
            "semester": "1",
            "a_periode_aktif": "0",
            "tanggal_mulai": "1987-07-01",
            "tanggal_selesai": "1987-12-31"
        },
        {
            "id_semester": "19872",
            "id_tahun_ajaran": "1987",
            "nama_semester": "1987/1988 Genap",
            "semester": "2",
            "a_periode_aktif": "0",
            "tanggal_mulai": "1988-01-01",
            "tanggal_selesai": "1988-07-31"
        },
        {
            "id_semester": "19873",
            "id_tahun_ajaran": "1987",
            "nama_semester": "1987/1988 Pendek",
            "semester": "3",
            "a_periode_aktif": "0",
            "tanggal_mulai": "1988-07-01",
            "tanggal_selesai": "1988-07-31"
        },
        {
            "id_semester": "19881",
            "id_tahun_ajaran": "1988",
            "nama_semester": "1988/1989 Ganjil",
            "semester": "1",
            "a_periode_aktif": "0",
            "tanggal_mulai": "1988-07-01",
            "tanggal_selesai": "1988-12-31"
        },
        {
            "id_semester": "19882",
            "id_tahun_ajaran": "1988",
            "nama_semester": "1988/1989 Genap",
            "semester": "2",
            "a_periode_aktif": "0",
            "tanggal_mulai": "1989-01-01",
            "tanggal_selesai": "1989-07-31"
        },
        {
            "id_semester": "19883",
            "id_tahun_ajaran": "1988",
            "nama_semester": "1988/1989 Pendek",
            "semester": "3",
            "a_periode_aktif": "0",
            "tanggal_mulai": "1989-07-01",
            "tanggal_selesai": "1989-07-31"
        },
        {
            "id_semester": "19891",
            "id_tahun_ajaran": "1989",
            "nama_semester": "1989/1990 Ganjil",
            "semester": "1",
            "a_periode_aktif": "0",
            "tanggal_mulai": "1989-07-01",
            "tanggal_selesai": "1989-12-31"
        },
        {
            "id_semester": "19892",
            "id_tahun_ajaran": "1989",
            "nama_semester": "1989/1990 Genap",
            "semester": "2",
            "a_periode_aktif": "0",
            "tanggal_mulai": "1990-01-01",
            "tanggal_selesai": "1990-07-31"
        },
        {
            "id_semester": "19893",
            "id_tahun_ajaran": "1989",
            "nama_semester": "1989/1990 Pendek",
            "semester": "3",
            "a_periode_aktif": "0",
            "tanggal_mulai": "1990-07-01",
            "tanggal_selesai": "1989-07-31"
        },
        {
            "id_semester": "19901",
            "id_tahun_ajaran": "1990",
            "nama_semester": "1990/1991 Ganjil",
            "semester": "1",
            "a_periode_aktif": "0",
            "tanggal_mulai": "1990-07-01",
            "tanggal_selesai": "1990-12-31"
        },
        {
            "id_semester": "19902",
            "id_tahun_ajaran": "1990",
            "nama_semester": "1990/1991 Genap",
            "semester": "1",
            "a_periode_aktif": "0",
            "tanggal_mulai": "1991-01-01",
            "tanggal_selesai": "1991-07-31"
        },
        {
            "id_semester": "19903",
            "id_tahun_ajaran": "1990",
            "nama_semester": "1990/1991 Pendek",
            "semester": "3",
            "a_periode_aktif": "0",
            "tanggal_mulai": "1991-07-01",
            "tanggal_selesai": "1991-07-31"
        },
        {
            "id_semester": "19911",
            "id_tahun_ajaran": "1991",
            "nama_semester": "1991/1992 Ganjil",
            "semester": "1",
            "a_periode_aktif": "0",
            "tanggal_mulai": "1991-07-01",
            "tanggal_selesai": "1991-12-31"
        },
        {
            "id_semester": "19912",
            "id_tahun_ajaran": "1991",
            "nama_semester": "1991/1992 Genap",
            "semester": "1",
            "a_periode_aktif": "0",
            "tanggal_mulai": "1992-01-01",
            "tanggal_selesai": "1992-07-31"
        },
        {
            "id_semester": "19913",
            "id_tahun_ajaran": "1991",
            "nama_semester": "1991/1992 Pendek",
            "semester": "3",
            "a_periode_aktif": "0",
            "tanggal_mulai": "1992-07-01",
            "tanggal_selesai": "1992-07-31"
        },
        {
            "id_semester": "19921",
            "id_tahun_ajaran": "1992",
            "nama_semester": "1992/1993 Ganjil",
            "semester": "1",
            "a_periode_aktif": "0",
            "tanggal_mulai": "1992-07-01",
            "tanggal_selesai": "1992-12-31"
        },
        {
            "id_semester": "19922",
            "id_tahun_ajaran": "1992",
            "nama_semester": "1992/1993 Genap",
            "semester": "1",
            "a_periode_aktif": "0",
            "tanggal_mulai": "1993-01-01",
            "tanggal_selesai": "1993-07-31"
        },
        {
            "id_semester": "19923",
            "id_tahun_ajaran": "1992",
            "nama_semester": "1992/1993 Pendek",
            "semester": "3",
            "a_periode_aktif": "0",
            "tanggal_mulai": "1993-07-01",
            "tanggal_selesai": "1993-07-31"
        },
        {
            "id_semester": "19931",
            "id_tahun_ajaran": "1993",
            "nama_semester": "1993/1994 Ganjil",
            "semester": "1",
            "a_periode_aktif": "0",
            "tanggal_mulai": "1993-07-01",
            "tanggal_selesai": "1993-12-31"
        },
        {
            "id_semester": "19932",
            "id_tahun_ajaran": "1993",
            "nama_semester": "1993/1994 Genap",
            "semester": "1",
            "a_periode_aktif": "0",
            "tanggal_mulai": "1994-01-01",
            "tanggal_selesai": "1994-07-31"
        },
        {
            "id_semester": "19933",
            "id_tahun_ajaran": "1993",
            "nama_semester": "1993/1994 Pendek",
            "semester": "3",
            "a_periode_aktif": "0",
            "tanggal_mulai": "1994-07-01",
            "tanggal_selesai": "1994-07-31"
        },
        {
            "id_semester": "19941",
            "id_tahun_ajaran": "1994",
            "nama_semester": "1994/1995 Ganjil",
            "semester": "1",
            "a_periode_aktif": "0",
            "tanggal_mulai": "1994-07-01",
            "tanggal_selesai": "1994-12-31"
        },
        {
            "id_semester": "19942",
            "id_tahun_ajaran": "1994",
            "nama_semester": "1994/1995 Genap",
            "semester": "1",
            "a_periode_aktif": "0",
            "tanggal_mulai": "1995-01-01",
            "tanggal_selesai": "1995-07-31"
        },
        {
            "id_semester": "19943",
            "id_tahun_ajaran": "1994",
            "nama_semester": "1994/1995 Pendek",
            "semester": "3",
            "a_periode_aktif": "0",
            "tanggal_mulai": "1995-07-01",
            "tanggal_selesai": "1995-07-31"
        },
        {
            "id_semester": "19951",
            "id_tahun_ajaran": "1995",
            "nama_semester": "1995/1996 Ganjil",
            "semester": "1",
            "a_periode_aktif": "0",
            "tanggal_mulai": "1995-07-01",
            "tanggal_selesai": "1995-12-31"
        },
        {
            "id_semester": "19952",
            "id_tahun_ajaran": "1995",
            "nama_semester": "1995/1996 Genap",
            "semester": "1",
            "a_periode_aktif": "0",
            "tanggal_mulai": "1996-01-01",
            "tanggal_selesai": "1996-07-31"
        },
        {
            "id_semester": "19953",
            "id_tahun_ajaran": "1995",
            "nama_semester": "1995/1996 Pendek",
            "semester": "3",
            "a_periode_aktif": "0",
            "tanggal_mulai": "1996-07-01",
            "tanggal_selesai": "1996-07-31"
        },
        {
            "id_semester": "19961",
            "id_tahun_ajaran": "1996",
            "nama_semester": "1996/1997 Ganjil",
            "semester": "1",
            "a_periode_aktif": "0",
            "tanggal_mulai": "1996-07-01",
            "tanggal_selesai": "1996-12-31"
        },
        {
            "id_semester": "19962",
            "id_tahun_ajaran": "1996",
            "nama_semester": "1996/1997 Genap",
            "semester": "1",
            "a_periode_aktif": "0",
            "tanggal_mulai": "1997-01-01",
            "tanggal_selesai": "1997-07-31"
        },
        {
            "id_semester": "19963",
            "id_tahun_ajaran": "1996",
            "nama_semester": "1996/1997 Pendek",
            "semester": "3",
            "a_periode_aktif": "0",
            "tanggal_mulai": "1997-07-01",
            "tanggal_selesai": "1997-07-31"
        },
        {
            "id_semester": "19971",
            "id_tahun_ajaran": "1997",
            "nama_semester": "1997/1998 Ganjil",
            "semester": "1",
            "a_periode_aktif": "0",
            "tanggal_mulai": "1997-07-01",
            "tanggal_selesai": "1997-12-31"
        },
        {
            "id_semester": "19972",
            "id_tahun_ajaran": "1997",
            "nama_semester": "1997/1998 Genap",
            "semester": "2",
            "a_periode_aktif": "0",
            "tanggal_mulai": "1998-01-01",
            "tanggal_selesai": "1998-07-31"
        },
        {
            "id_semester": "19973",
            "id_tahun_ajaran": "1997",
            "nama_semester": "1997/1998 Pendek",
            "semester": "3",
            "a_periode_aktif": "0",
            "tanggal_mulai": "1998-07-01",
            "tanggal_selesai": "1998-07-31"
        },
        {
            "id_semester": "19981",
            "id_tahun_ajaran": "1998",
            "nama_semester": "1998/1999 Ganjil",
            "semester": "1",
            "a_periode_aktif": "0",
            "tanggal_mulai": "1998-07-01",
            "tanggal_selesai": "1998-12-31"
        },
        {
            "id_semester": "19982",
            "id_tahun_ajaran": "1998",
            "nama_semester": "1998/1999 Genap",
            "semester": "2",
            "a_periode_aktif": "0",
            "tanggal_mulai": "1999-01-01",
            "tanggal_selesai": "1999-07-31"
        },
        {
            "id_semester": "19983",
            "id_tahun_ajaran": "1998",
            "nama_semester": "1998/1999 Pendek",
            "semester": "3",
            "a_periode_aktif": "0",
            "tanggal_mulai": "1999-07-01",
            "tanggal_selesai": "1999-07-31"
        },
        {
            "id_semester": "19991",
            "id_tahun_ajaran": "1999",
            "nama_semester": "1999/2000 Ganjil",
            "semester": "1",
            "a_periode_aktif": "0",
            "tanggal_mulai": "1999-07-01",
            "tanggal_selesai": "1999-12-31"
        },
        {
            "id_semester": "19992",
            "id_tahun_ajaran": "1999",
            "nama_semester": "1999/2000 Genap",
            "semester": "2",
            "a_periode_aktif": "0",
            "tanggal_mulai": "2000-01-01",
            "tanggal_selesai": "2000-07-31"
        },
        {
            "id_semester": "19993",
            "id_tahun_ajaran": "1999",
            "nama_semester": "1999/2000 Pendek",
            "semester": "3",
            "a_periode_aktif": "0",
            "tanggal_mulai": "2000-07-01",
            "tanggal_selesai": "2000-07-31"
        },
        {
            "id_semester": "20001",
            "id_tahun_ajaran": "2000",
            "nama_semester": "2000/2001 Ganjil",
            "semester": "1",
            "a_periode_aktif": "0",
            "tanggal_mulai": "2000-07-01",
            "tanggal_selesai": "2000-12-31"
        },
        {
            "id_semester": "20002",
            "id_tahun_ajaran": "2000",
            "nama_semester": "2000/2001 Genap",
            "semester": "2",
            "a_periode_aktif": "0",
            "tanggal_mulai": "2001-01-01",
            "tanggal_selesai": "2001-07-31"
        },
        {
            "id_semester": "20003",
            "id_tahun_ajaran": "2000",
            "nama_semester": "2000/2001 Pendek",
            "semester": "3",
            "a_periode_aktif": "0",
            "tanggal_mulai": "2001-07-01",
            "tanggal_selesai": "2001-07-31"
        },
        {
            "id_semester": "20011",
            "id_tahun_ajaran": "2001",
            "nama_semester": "2001/2002 Ganjil",
            "semester": "1",
            "a_periode_aktif": "0",
            "tanggal_mulai": "2001-07-01",
            "tanggal_selesai": "2001-12-31"
        },
        {
            "id_semester": "20012",
            "id_tahun_ajaran": "2001",
            "nama_semester": "2001/2002 Genap",
            "semester": "2",
            "a_periode_aktif": "0",
            "tanggal_mulai": "2002-01-01",
            "tanggal_selesai": "2002-07-31"
        },
        {
            "id_semester": "20013",
            "id_tahun_ajaran": "2001",
            "nama_semester": "2001/2002 Pendek",
            "semester": "3",
            "a_periode_aktif": "0",
            "tanggal_mulai": "2002-07-01",
            "tanggal_selesai": "2002-07-31"
        },
        {
            "id_semester": "20021",
            "id_tahun_ajaran": "2002",
            "nama_semester": "2002/2003 Ganjil",
            "semester": "1",
            "a_periode_aktif": "0",
            "tanggal_mulai": "2002-07-01",
            "tanggal_selesai": "2002-12-31"
        },
        {
            "id_semester": "20022",
            "id_tahun_ajaran": "2002",
            "nama_semester": "2002/2003 Genap",
            "semester": "2",
            "a_periode_aktif": "0",
            "tanggal_mulai": "2003-01-01",
            "tanggal_selesai": "2003-07-31"
        },
        {
            "id_semester": "20023",
            "id_tahun_ajaran": "2002",
            "nama_semester": "2002/2003 Pendek",
            "semester": "3",
            "a_periode_aktif": "0",
            "tanggal_mulai": "2003-07-01",
            "tanggal_selesai": "2003-07-31"
        },
        {
            "id_semester": "20031",
            "id_tahun_ajaran": "2003",
            "nama_semester": "2003/2004 Ganjil",
            "semester": "1",
            "a_periode_aktif": "0",
            "tanggal_mulai": "2003-07-01",
            "tanggal_selesai": "2003-12-31"
        },
        {
            "id_semester": "20032",
            "id_tahun_ajaran": "2003",
            "nama_semester": "2003/2004 Genap",
            "semester": "2",
            "a_periode_aktif": "0",
            "tanggal_mulai": "2004-01-01",
            "tanggal_selesai": "2004-07-31"
        },
        {
            "id_semester": "20033",
            "id_tahun_ajaran": "2003",
            "nama_semester": "2003/2004 Pendek",
            "semester": "3",
            "a_periode_aktif": "0",
            "tanggal_mulai": "2004-07-01",
            "tanggal_selesai": "2004-07-31"
        },
        {
            "id_semester": "20041",
            "id_tahun_ajaran": "2004",
            "nama_semester": "2004/2005 Ganjil",
            "semester": "1",
            "a_periode_aktif": "0",
            "tanggal_mulai": "2004-07-01",
            "tanggal_selesai": "2004-12-31"
        },
        {
            "id_semester": "20042",
            "id_tahun_ajaran": "2004",
            "nama_semester": "2004/2005 Genap",
            "semester": "2",
            "a_periode_aktif": "0",
            "tanggal_mulai": "2005-01-01",
            "tanggal_selesai": "2005-07-31"
        },
        {
            "id_semester": "20043",
            "id_tahun_ajaran": "2004",
            "nama_semester": "2004/2005 Pendek",
            "semester": "3",
            "a_periode_aktif": "0",
            "tanggal_mulai": "2005-07-01",
            "tanggal_selesai": "2005-07-31"
        },
        {
            "id_semester": "20051",
            "id_tahun_ajaran": "2005",
            "nama_semester": "2005/2006 Ganjil",
            "semester": "1",
            "a_periode_aktif": "0",
            "tanggal_mulai": "2005-07-01",
            "tanggal_selesai": "2005-12-31"
        },
        {
            "id_semester": "20052",
            "id_tahun_ajaran": "2005",
            "nama_semester": "2005/2006 Genap",
            "semester": "2",
            "a_periode_aktif": "0",
            "tanggal_mulai": "2006-01-01",
            "tanggal_selesai": "2006-07-31"
        },
        {
            "id_semester": "20053",
            "id_tahun_ajaran": "2005",
            "nama_semester": "2005/2006 Pendek",
            "semester": "3",
            "a_periode_aktif": "0",
            "tanggal_mulai": "2006-07-01",
            "tanggal_selesai": "2006-07-31"
        },
        {
            "id_semester": "20061",
            "id_tahun_ajaran": "2006",
            "nama_semester": "2006/2007 Ganjil",
            "semester": "1",
            "a_periode_aktif": "0",
            "tanggal_mulai": "2006-07-01",
            "tanggal_selesai": "2006-12-31"
        },
        {
            "id_semester": "20062",
            "id_tahun_ajaran": "2006",
            "nama_semester": "2006/2007 Genap",
            "semester": "2",
            "a_periode_aktif": "0",
            "tanggal_mulai": "2007-01-01",
            "tanggal_selesai": "2007-07-31"
        },
        {
            "id_semester": "20063",
            "id_tahun_ajaran": "2006",
            "nama_semester": "2006/2007 Pendek",
            "semester": "3",
            "a_periode_aktif": "0",
            "tanggal_mulai": "2007-07-01",
            "tanggal_selesai": "2007-07-31"
        },
        {
            "id_semester": "20071",
            "id_tahun_ajaran": "2007",
            "nama_semester": "2007/2008 Ganjil",
            "semester": "1",
            "a_periode_aktif": "0",
            "tanggal_mulai": "2007-07-01",
            "tanggal_selesai": "2007-12-31"
        },
        {
            "id_semester": "20072",
            "id_tahun_ajaran": "2007",
            "nama_semester": "2007/2008 Genap",
            "semester": "2",
            "a_periode_aktif": "0",
            "tanggal_mulai": "2008-01-01",
            "tanggal_selesai": "2008-07-31"
        },
        {
            "id_semester": "20073",
            "id_tahun_ajaran": "2007",
            "nama_semester": "2007/2008 Pendek",
            "semester": "3",
            "a_periode_aktif": "0",
            "tanggal_mulai": "2008-07-01",
            "tanggal_selesai": "2008-07-31"
        },
        {
            "id_semester": "20081",
            "id_tahun_ajaran": "2008",
            "nama_semester": "2008/2009 Ganjil",
            "semester": "1",
            "a_periode_aktif": "0",
            "tanggal_mulai": "2008-07-01",
            "tanggal_selesai": "2008-12-31"
        },
        {
            "id_semester": "20082",
            "id_tahun_ajaran": "2008",
            "nama_semester": "2008/2009 Genap",
            "semester": "2",
            "a_periode_aktif": "0",
            "tanggal_mulai": "2009-01-01",
            "tanggal_selesai": "2009-07-31"
        },
        {
            "id_semester": "20083",
            "id_tahun_ajaran": "2008",
            "nama_semester": "2008/2009 Pendek",
            "semester": "3",
            "a_periode_aktif": "0",
            "tanggal_mulai": "2009-07-01",
            "tanggal_selesai": "2009-07-31"
        },
        {
            "id_semester": "20091",
            "id_tahun_ajaran": "2009",
            "nama_semester": "2009/2010 Ganjil",
            "semester": "1",
            "a_periode_aktif": "0",
            "tanggal_mulai": "2009-07-01",
            "tanggal_selesai": "2009-12-31"
        },
        {
            "id_semester": "20092",
            "id_tahun_ajaran": "2009",
            "nama_semester": "2009/2010 Genap",
            "semester": "2",
            "a_periode_aktif": "0",
            "tanggal_mulai": "2010-01-01",
            "tanggal_selesai": "2010-07-31"
        },
        {
            "id_semester": "20093",
            "id_tahun_ajaran": "2009",
            "nama_semester": "2009/2010 Pendek",
            "semester": "3",
            "a_periode_aktif": "0",
            "tanggal_mulai": "2010-07-01",
            "tanggal_selesai": "2010-07-31"
        },
        {
            "id_semester": "20101",
            "id_tahun_ajaran": "2010",
            "nama_semester": "2010/2011 Ganjil",
            "semester": "1",
            "a_periode_aktif": "0",
            "tanggal_mulai": "2010-07-01",
            "tanggal_selesai": "2010-12-31"
        },
        {
            "id_semester": "20102",
            "id_tahun_ajaran": "2010",
            "nama_semester": "2010/2011 Genap",
            "semester": "2",
            "a_periode_aktif": "0",
            "tanggal_mulai": "2011-01-01",
            "tanggal_selesai": "2011-07-31"
        },
        {
            "id_semester": "20103",
            "id_tahun_ajaran": "2010",
            "nama_semester": "2010/2011 Pendek",
            "semester": "3",
            "a_periode_aktif": "0",
            "tanggal_mulai": "2011-07-01",
            "tanggal_selesai": "2011-07-31"
        },
        {
            "id_semester": "20111",
            "id_tahun_ajaran": "2011",
            "nama_semester": "2011/2012 Ganjil",
            "semester": "1",
            "a_periode_aktif": "0",
            "tanggal_mulai": "2011-07-01",
            "tanggal_selesai": "2011-12-31"
        },
        {
            "id_semester": "20112",
            "id_tahun_ajaran": "2011",
            "nama_semester": "2011/2012 Genap",
            "semester": "2",
            "a_periode_aktif": "0",
            "tanggal_mulai": "2012-01-01",
            "tanggal_selesai": "2012-07-31"
        },
        {
            "id_semester": "20113",
            "id_tahun_ajaran": "2011",
            "nama_semester": "2011/2012 Pendek",
            "semester": "3",
            "a_periode_aktif": "0",
            "tanggal_mulai": "2012-07-01",
            "tanggal_selesai": "2012-07-31"
        },
        {
            "id_semester": "20121",
            "id_tahun_ajaran": "2012",
            "nama_semester": "2012/2013 Ganjil",
            "semester": "1",
            "a_periode_aktif": "0",
            "tanggal_mulai": "2012-07-01",
            "tanggal_selesai": "2012-12-31"
        },
        {
            "id_semester": "20122",
            "id_tahun_ajaran": "2012",
            "nama_semester": "2012/2013 Genap",
            "semester": "2",
            "a_periode_aktif": "0",
            "tanggal_mulai": "2013-01-01",
            "tanggal_selesai": "2013-07-31"
        },
        {
            "id_semester": "20123",
            "id_tahun_ajaran": "2012",
            "nama_semester": "2012/2013 Pendek",
            "semester": "3",
            "a_periode_aktif": "0",
            "tanggal_mulai": "2013-07-01",
            "tanggal_selesai": "2013-07-31"
        },
        {
            "id_semester": "20131",
            "id_tahun_ajaran": "2013",
            "nama_semester": "2013/2014 Ganjil",
            "semester": "1",
            "a_periode_aktif": "0",
            "tanggal_mulai": "2013-07-01",
            "tanggal_selesai": "2013-12-31"
        },
        {
            "id_semester": "20132",
            "id_tahun_ajaran": "2013",
            "nama_semester": "2013/2014 Genap",
            "semester": "2",
            "a_periode_aktif": "0",
            "tanggal_mulai": "2014-01-01",
            "tanggal_selesai": "2014-07-31"
        },
        {
            "id_semester": "20133",
            "id_tahun_ajaran": "2013",
            "nama_semester": "2013/2014 Pendek",
            "semester": "3",
            "a_periode_aktif": "0",
            "tanggal_mulai": "2014-07-01",
            "tanggal_selesai": "2014-07-31"
        },
        {
            "id_semester": "20141",
            "id_tahun_ajaran": "2014",
            "nama_semester": "2014/2015 Ganjil",
            "semester": "1",
            "a_periode_aktif": "0",
            "tanggal_mulai": "2014-07-01",
            "tanggal_selesai": "2014-12-31"
        },
        {
            "id_semester": "20142",
            "id_tahun_ajaran": "2014",
            "nama_semester": "2014/2015 Genap",
            "semester": "2",
            "a_periode_aktif": "0",
            "tanggal_mulai": "2015-01-01",
            "tanggal_selesai": "2015-07-31"
        },
        {
            "id_semester": "20143",
            "id_tahun_ajaran": "2014",
            "nama_semester": "2014/2015 Pendek",
            "semester": "3",
            "a_periode_aktif": "0",
            "tanggal_mulai": "2015-07-01",
            "tanggal_selesai": "2015-07-31"
        },
        {
            "id_semester": "20151",
            "id_tahun_ajaran": "2015",
            "nama_semester": "2015/2016 Ganjil",
            "semester": "1",
            "a_periode_aktif": "0",
            "tanggal_mulai": "2015-07-01",
            "tanggal_selesai": "2015-12-31"
        },
        {
            "id_semester": "20152",
            "id_tahun_ajaran": "2015",
            "nama_semester": "2015/2016 Genap",
            "semester": "2",
            "a_periode_aktif": "0",
            "tanggal_mulai": "2016-01-01",
            "tanggal_selesai": "2016-07-31"
        },
        {
            "id_semester": "20153",
            "id_tahun_ajaran": "2015",
            "nama_semester": "2015/2016 Pendek",
            "semester": "3",
            "a_periode_aktif": "0",
            "tanggal_mulai": "2016-07-01",
            "tanggal_selesai": "2016-07-31"
        },
        {
            "id_semester": "20161",
            "id_tahun_ajaran": "2016",
            "nama_semester": "2016/2017 Ganjil",
            "semester": "1",
            "a_periode_aktif": "0",
            "tanggal_mulai": "2016-08-01",
            "tanggal_selesai": "2016-12-31"
        },
        {
            "id_semester": "20162",
            "id_tahun_ajaran": "2016",
            "nama_semester": "2016/2017 Genap",
            "semester": "2",
            "a_periode_aktif": "0",
            "tanggal_mulai": "2017-01-01",
            "tanggal_selesai": "2017-07-31"
        },
        {
            "id_semester": "20163",
            "id_tahun_ajaran": "2016",
            "nama_semester": "2016/2017 Pendek",
            "semester": "3",
            "a_periode_aktif": "0",
            "tanggal_mulai": "2017-07-01",
            "tanggal_selesai": "2017-07-31"
        },
        {
            "id_semester": "20171",
            "id_tahun_ajaran": "2017",
            "nama_semester": "2017/2018 Ganjil",
            "semester": "1",
            "a_periode_aktif": "0",
            "tanggal_mulai": "2017-08-01",
            "tanggal_selesai": "2017-12-31"
        },
        {
            "id_semester": "20172",
            "id_tahun_ajaran": "2017",
            "nama_semester": "2017/2018 Genap",
            "semester": "2",
            "a_periode_aktif": "1",
            "tanggal_mulai": "2018-01-01",
            "tanggal_selesai": "2018-07-31"
        },
        {
            "id_semester": "20173",
            "id_tahun_ajaran": "2017",
            "nama_semester": "2017/2018 Pendek",
            "semester": "3",
            "a_periode_aktif": "1",
            "tanggal_mulai": "2018-07-01",
            "tanggal_selesai": "2018-07-31"
        },
        {
            "id_semester": "20181",
            "id_tahun_ajaran": "2018",
            "nama_semester": "2018/2019 Ganjil",
            "semester": "1",
            "a_periode_aktif": "1",
            "tanggal_mulai": "2018-08-01",
            "tanggal_selesai": "2018-12-31"
        },
        {
            "id_semester": "20182",
            "id_tahun_ajaran": "2018",
            "nama_semester": "2018/2019 Genap",
            "semester": "2",
            "a_periode_aktif": "0",
            "tanggal_mulai": "2019-01-01",
            "tanggal_selesai": "2019-07-31"
        },
        {
            "id_semester": "20183",
            "id_tahun_ajaran": "2018",
            "nama_semester": "2018/2019 Pendek",
            "semester": "3",
            "a_periode_aktif": "0",
            "tanggal_mulai": "2019-07-01",
            "tanggal_selesai": "2019-07-31"
        },
        {
            "id_semester": "20191",
            "id_tahun_ajaran": "2019",
            "nama_semester": "2019/2020 Ganjil",
            "semester": "1",
            "a_periode_aktif": "0",
            "tanggal_mulai": "2019-08-01",
            "tanggal_selesai": "2019-12-31"
        },
        {
            "id_semester": "20192",
            "id_tahun_ajaran": "2019",
            "nama_semester": "2019/2020 Genap",
            "semester": "2",
            "a_periode_aktif": "0",
            "tanggal_mulai": "2020-01-01",
            "tanggal_selesai": "2020-07-31"
        },
        {
            "id_semester": "20193",
            "id_tahun_ajaran": "2019",
            "nama_semester": "2019/2020 Pendek",
            "semester": "3",
            "a_periode_aktif": "0",
            "tanggal_mulai": "2020-07-01",
            "tanggal_selesai": "2020-07-31"
        },
        {
            "id_semester": "20201",
            "id_tahun_ajaran": "2020",
            "nama_semester": "2020/2021 Ganjil",
            "semester": "1",
            "a_periode_aktif": "0",
            "tanggal_mulai": "2020-08-01",
            "tanggal_selesai": "2020-12-31"
        },
        {
            "id_semester": "20202",
            "id_tahun_ajaran": "2020",
            "nama_semester": "2020/2021 Genap",
            "semester": "2",
            "a_periode_aktif": "0",
            "tanggal_mulai": "2021-01-01",
            "tanggal_selesai": "2021-07-31"
        },
        {
            "id_semester": "20203",
            "id_tahun_ajaran": "2020",
            "nama_semester": "2020/2021 Pendek",
            "semester": "3",
            "a_periode_aktif": "0",
            "tanggal_mulai": "2021-07-01",
            "tanggal_selesai": "2021-07-31"
        },
        {
            "id_semester": "20211",
            "id_tahun_ajaran": "2020",
            "nama_semester": "2021/2022 Ganjil",
            "semester": "1",
            "a_periode_aktif": "0",
            "tanggal_mulai": "2021-08-01",
            "tanggal_selesai": "2021-12-31"
        },
        {
            "id_semester": "20212",
            "id_tahun_ajaran": "2020",
            "nama_semester": "2021/2022 Genap",
            "semester": "2",
            "a_periode_aktif": "0",
            "tanggal_mulai": "2022-01-01",
            "tanggal_selesai": "2022-07-31"
        },
        {
            "id_semester": "20213",
            "id_tahun_ajaran": "2020",
            "nama_semester": "2021/2022 Pendek",
            "semester": "3",
            "a_periode_aktif": "0",
            "tanggal_mulai": "2022-07-01",
            "tanggal_selesai": "2022-07-31"
        }
    ]
