[
        {
            "id_status_aktif": "1",
            "nama_status_aktif": "Aktif"
        },
        {
            "id_status_aktif": "2",
            "nama_status_aktif": "Tidak Aktif"
        },
        {
            "id_status_aktif": "20",
            "nama_status_aktif": "CUTI                          "
        },
        {
            "id_status_aktif": "24",
            "nama_status_aktif": "IJIN BELAJAR                  "
        },
        {
            "id_status_aktif": "25",
            "nama_status_aktif": "TUGAS DI INSTANSI LAIN        "
        },
        {
            "id_status_aktif": "27",
            "nama_status_aktif": "TUGAS BELAJAR                 "
        }
    ]
